info face=null size=21 bold=0 italic=0 charset=ASCII unicode=0 stretchH=100 smooth=1 aa=1 padding=0,0,0,0 spacing=1,1 
common lineHeight=28 base=26 scaleW=256 scaleH=256 pages=1 packed=0 
page id=0 file="URWChanceryL.png"
chars count=255
char id=32    x=0    y=7    width=0    height=28    xoffset=0    yoffset=0    xadvance=5     page=0    chnl=0
char id=33    x=0    y=7    width=7    height=28    xoffset=2    yoffset=0    xadvance=6     page=0    chnl=0
char id=34    x=7    y=7    width=5    height=28    xoffset=3    yoffset=0    xadvance=5     page=0    chnl=0
char id=35    x=12    y=7    width=14    height=28    xoffset=0    yoffset=0    xadvance=9     page=0    chnl=0
char id=36    x=26    y=7    width=11    height=28    xoffset=1    yoffset=0    xadvance=9     page=0    chnl=0
char id=37    x=37    y=7    width=13    height=28    xoffset=3    yoffset=0    xadvance=14     page=0    chnl=0
char id=38    x=50    y=7    width=17    height=28    xoffset=2    yoffset=0    xadvance=16     page=0    chnl=0
char id=39    x=67    y=7    width=4    height=28    xoffset=3    yoffset=0    xadvance=3     page=0    chnl=0
char id=40    x=71    y=7    width=8    height=28    xoffset=2    yoffset=0    xadvance=5     page=0    chnl=0
char id=41    x=79    y=7    width=9    height=28    xoffset=-1    yoffset=0    xadvance=5     page=0    chnl=0
char id=42    x=88    y=7    width=8    height=28    xoffset=4    yoffset=0    xadvance=9     page=0    chnl=0
char id=43    x=96    y=7    width=11    height=28    xoffset=2    yoffset=0    xadvance=11     page=0    chnl=0
char id=44    x=107    y=7    width=6    height=28    xoffset=0    yoffset=0    xadvance=5     page=0    chnl=0
char id=45    x=113    y=7    width=6    height=28    xoffset=1    yoffset=0    xadvance=6     page=0    chnl=0
char id=46    x=119    y=7    width=4    height=28    xoffset=2    yoffset=0    xadvance=5     page=0    chnl=0
char id=47    x=123    y=7    width=14    height=28    xoffset=-1    yoffset=0    xadvance=7     page=0    chnl=0
char id=48    x=137    y=7    width=9    height=28    xoffset=2    yoffset=0    xadvance=9     page=0    chnl=0
char id=49    x=146    y=7    width=10    height=28    xoffset=1    yoffset=0    xadvance=9     page=0    chnl=0
char id=50    x=156    y=7    width=11    height=28    xoffset=0    yoffset=0    xadvance=9     page=0    chnl=0
char id=51    x=167    y=7    width=11    height=28    xoffset=0    yoffset=0    xadvance=9     page=0    chnl=0
char id=52    x=178    y=7    width=10    height=28    xoffset=1    yoffset=0    xadvance=9     page=0    chnl=0
char id=53    x=188    y=7    width=13    height=28    xoffset=0    yoffset=0    xadvance=9     page=0    chnl=0
char id=54    x=201    y=7    width=11    height=28    xoffset=2    yoffset=0    xadvance=9     page=0    chnl=0
char id=55    x=212    y=7    width=10    height=28    xoffset=3    yoffset=0    xadvance=9     page=0    chnl=0
char id=56    x=222    y=7    width=10    height=28    xoffset=1    yoffset=0    xadvance=9     page=0    chnl=0
char id=57    x=232    y=7    width=11    height=28    xoffset=0    yoffset=0    xadvance=9     page=0    chnl=0
char id=58    x=243    y=7    width=6    height=28    xoffset=1    yoffset=0    xadvance=5     page=0    chnl=0
char id=59    x=249    y=7    width=7    height=28    xoffset=0    yoffset=0    xadvance=5     page=0    chnl=0
char id=60    x=0    y=35    width=11    height=28    xoffset=2    yoffset=0    xadvance=11     page=0    chnl=0
char id=61    x=11    y=35    width=10    height=28    xoffset=2    yoffset=0    xadvance=11     page=0    chnl=0
char id=62    x=21    y=35    width=11    height=28    xoffset=2    yoffset=0    xadvance=11     page=0    chnl=0
char id=63    x=32    y=35    width=9    height=28    xoffset=2    yoffset=0    xadvance=8     page=0    chnl=0
char id=64    x=41    y=35    width=15    height=28    xoffset=2    yoffset=0    xadvance=15     page=0    chnl=0
char id=65    x=56    y=35    width=16    height=28    xoffset=0    yoffset=0    xadvance=13     page=0    chnl=0
char id=66    x=72    y=35    width=14    height=28    xoffset=0    yoffset=0    xadvance=13     page=0    chnl=0
char id=67    x=86    y=35    width=13    height=28    xoffset=2    yoffset=0    xadvance=11     page=0    chnl=0
char id=68    x=99    y=35    width=16    height=28    xoffset=1    yoffset=0    xadvance=15     page=0    chnl=0
char id=69    x=115    y=35    width=15    height=28    xoffset=0    yoffset=0    xadvance=13     page=0    chnl=0
char id=70    x=130    y=35    width=17    height=28    xoffset=0    yoffset=0    xadvance=12     page=0    chnl=0
char id=71    x=147    y=35    width=13    height=28    xoffset=2    yoffset=0    xadvance=13     page=0    chnl=0
char id=72    x=160    y=35    width=20    height=28    xoffset=0    yoffset=0    xadvance=14     page=0    chnl=0
char id=73    x=180    y=35    width=12    height=28    xoffset=0    yoffset=0    xadvance=8     page=0    chnl=0
char id=74    x=192    y=35    width=13    height=28    xoffset=-1    yoffset=0    xadvance=8     page=0    chnl=0
char id=75    x=205    y=35    width=18    height=28    xoffset=1    yoffset=0    xadvance=14     page=0    chnl=0
char id=76    x=223    y=35    width=14    height=28    xoffset=0    yoffset=0    xadvance=12     page=0    chnl=0
char id=77    x=0    y=63    width=22    height=28    xoffset=0    yoffset=0    xadvance=18     page=0    chnl=0
char id=78    x=22    y=63    width=21    height=28    xoffset=0    yoffset=0    xadvance=15     page=0    chnl=0
char id=79    x=43    y=63    width=13    height=28    xoffset=2    yoffset=0    xadvance=13     page=0    chnl=0
char id=80    x=56    y=63    width=15    height=28    xoffset=-1    yoffset=0    xadvance=11     page=0    chnl=0
char id=81    x=71    y=63    width=17    height=28    xoffset=2    yoffset=0    xadvance=13     page=0    chnl=0
char id=82    x=88    y=63    width=19    height=28    xoffset=0    yoffset=0    xadvance=13     page=0    chnl=0
char id=83    x=107    y=63    width=14    height=28    xoffset=-1    yoffset=0    xadvance=10     page=0    chnl=0
char id=84    x=121    y=63    width=15    height=28    xoffset=1    yoffset=0    xadvance=11     page=0    chnl=0
char id=85    x=136    y=63    width=16    height=28    xoffset=2    yoffset=0    xadvance=16     page=0    chnl=0
char id=86    x=152    y=63    width=16    height=28    xoffset=2    yoffset=0    xadvance=13     page=0    chnl=0
char id=87    x=168    y=63    width=21    height=28    xoffset=2    yoffset=0    xadvance=18     page=0    chnl=0
char id=88    x=189    y=63    width=16    height=28    xoffset=-1    yoffset=0    xadvance=12     page=0    chnl=0
char id=89    x=205    y=63    width=18    height=28    xoffset=0    yoffset=0    xadvance=12     page=0    chnl=0
char id=90    x=223    y=63    width=15    height=28    xoffset=1    yoffset=0    xadvance=13     page=0    chnl=0
char id=91    x=238    y=63    width=11    height=28    xoffset=0    yoffset=0    xadvance=5     page=0    chnl=0
char id=92    x=0    y=91    width=9    height=28    xoffset=3    yoffset=0    xadvance=10     page=0    chnl=0
char id=93    x=9    y=91    width=10    height=28    xoffset=-1    yoffset=0    xadvance=7     page=0    chnl=0
char id=94    x=19    y=91    width=7    height=28    xoffset=4    yoffset=0    xadvance=11     page=0    chnl=0
char id=95    x=26    y=91    width=12    height=28    xoffset=0    yoffset=0    xadvance=11     page=0    chnl=0
char id=96    x=38    y=91    width=4    height=28    xoffset=3    yoffset=0    xadvance=5     page=0    chnl=0
char id=97    x=42    y=91    width=10    height=28    xoffset=2    yoffset=0    xadvance=9     page=0    chnl=0
char id=98    x=52    y=91    width=11    height=28    xoffset=1    yoffset=0    xadvance=9     page=0    chnl=0
char id=99    x=63    y=91    width=8    height=28    xoffset=2    yoffset=0    xadvance=7     page=0    chnl=0
char id=100    x=71    y=91    width=13    height=28    xoffset=2    yoffset=0    xadvance=9     page=0    chnl=0
char id=101    x=84    y=91    width=7    height=28    xoffset=2    yoffset=0    xadvance=7     page=0    chnl=0
char id=102    x=91    y=91    width=16    height=28    xoffset=-3    yoffset=0    xadvance=7     page=0    chnl=0
char id=103    x=107    y=91    width=14    height=28    xoffset=-2    yoffset=0    xadvance=8     page=0    chnl=0
char id=104    x=121    y=91    width=11    height=28    xoffset=1    yoffset=0    xadvance=9     page=0    chnl=0
char id=105    x=132    y=91    width=6    height=28    xoffset=2    yoffset=0    xadvance=5     page=0    chnl=0
char id=106    x=138    y=91    width=12    height=28    xoffset=-4    yoffset=0    xadvance=5     page=0    chnl=0
char id=107    x=150    y=91    width=14    height=28    xoffset=1    yoffset=0    xadvance=9     page=0    chnl=0
char id=108    x=164    y=91    width=10    height=28    xoffset=1    yoffset=0    xadvance=5     page=0    chnl=0
char id=109    x=174    y=91    width=15    height=28    xoffset=1    yoffset=0    xadvance=13     page=0    chnl=0
char id=110    x=189    y=91    width=11    height=28    xoffset=1    yoffset=0    xadvance=10     page=0    chnl=0
char id=111    x=200    y=91    width=9    height=28    xoffset=2    yoffset=0    xadvance=8     page=0    chnl=0
char id=112    x=209    y=91    width=12    height=28    xoffset=-1    yoffset=0    xadvance=9     page=0    chnl=0
char id=113    x=221    y=91    width=10    height=28    xoffset=2    yoffset=0    xadvance=8     page=0    chnl=0
char id=114    x=231    y=91    width=9    height=28    xoffset=1    yoffset=0    xadvance=6     page=0    chnl=0
char id=115    x=240    y=91    width=10    height=28    xoffset=0    yoffset=0    xadvance=7     page=0    chnl=0
char id=116    x=0    y=119    width=9    height=28    xoffset=1    yoffset=0    xadvance=7     page=0    chnl=0
char id=117    x=9    y=119    width=11    height=28    xoffset=1    yoffset=0    xadvance=10     page=0    chnl=0
char id=118    x=20    y=119    width=11    height=28    xoffset=1    yoffset=0    xadvance=9     page=0    chnl=0
char id=119    x=31    y=119    width=16    height=28    xoffset=1    yoffset=0    xadvance=14     page=0    chnl=0
char id=120    x=47    y=119    width=12    height=28    xoffset=1    yoffset=0    xadvance=9     page=0    chnl=0
char id=121    x=59    y=119    width=12    height=28    xoffset=-1    yoffset=0    xadvance=8     page=0    chnl=0
char id=122    x=71    y=119    width=11    height=28    xoffset=0    yoffset=0    xadvance=9     page=0    chnl=0
char id=123    x=82    y=119    width=9    height=28    xoffset=2    yoffset=0    xadvance=5     page=0    chnl=0
char id=124    x=91    y=119    width=3    height=28    xoffset=6    yoffset=0    xadvance=11     page=0    chnl=0
char id=125    x=94    y=119    width=8    height=28    xoffset=0    yoffset=0    xadvance=5     page=0    chnl=0
char id=126    x=102    y=119    width=11    height=28    xoffset=1    yoffset=0    xadvance=11     page=0    chnl=0
char id=160    x=113    y=119    width=0    height=28    xoffset=0    yoffset=0    xadvance=5     page=0    chnl=0
char id=161    x=113    y=119    width=8    height=28    xoffset=0    yoffset=0    xadvance=6     page=0    chnl=0
char id=162    x=121    y=119    width=9    height=28    xoffset=3    yoffset=0    xadvance=9     page=0    chnl=0
char id=163    x=130    y=119    width=11    height=28    xoffset=0    yoffset=0    xadvance=9     page=0    chnl=0
char id=164    x=141    y=119    width=13    height=28    xoffset=0    yoffset=0    xadvance=9     page=0    chnl=0
char id=165    x=154    y=119    width=16    height=28    xoffset=-1    yoffset=0    xadvance=9     page=0    chnl=0
char id=166    x=170    y=119    width=3    height=28    xoffset=6    yoffset=0    xadvance=11     page=0    chnl=0
char id=167    x=173    y=119    width=12    height=28    xoffset=0    yoffset=0    xadvance=9     page=0    chnl=0
char id=168    x=185    y=119    width=7    height=28    xoffset=3    yoffset=0    xadvance=8     page=0    chnl=0
char id=169    x=192    y=119    width=15    height=28    xoffset=3    yoffset=0    xadvance=16     page=0    chnl=0
char id=170    x=207    y=119    width=8    height=28    xoffset=1    yoffset=0    xadvance=5     page=0    chnl=0
char id=171    x=215    y=119    width=9    height=28    xoffset=1    yoffset=0    xadvance=7     page=0    chnl=0
char id=172    x=224    y=119    width=13    height=28    xoffset=0    yoffset=0    xadvance=11     page=0    chnl=0
char id=173    x=237    y=119    width=6    height=28    xoffset=1    yoffset=0    xadvance=6     page=0    chnl=0
char id=174    x=0    y=147    width=15    height=28    xoffset=3    yoffset=0    xadvance=16     page=0    chnl=0
char id=175    x=15    y=147    width=10    height=28    xoffset=3    yoffset=0    xadvance=9     page=0    chnl=0
char id=176    x=25    y=147    width=6    height=28    xoffset=4    yoffset=0    xadvance=8     page=0    chnl=0
char id=177    x=31    y=147    width=11    height=28    xoffset=2    yoffset=0    xadvance=11     page=0    chnl=0
char id=178    x=42    y=147    width=9    height=28    xoffset=1    yoffset=0    xadvance=6     page=0    chnl=0
char id=179    x=51    y=147    width=8    height=28    xoffset=1    yoffset=0    xadvance=6     page=0    chnl=0
char id=180    x=59    y=147    width=7    height=28    xoffset=3    yoffset=0    xadvance=6     page=0    chnl=0
char id=181    x=66    y=147    width=13    height=28    xoffset=-1    yoffset=0    xadvance=10     page=0    chnl=0
char id=182    x=79    y=147    width=15    height=28    xoffset=0    yoffset=0    xadvance=11     page=0    chnl=0
char id=183    x=94    y=147    width=4    height=28    xoffset=2    yoffset=0    xadvance=5     page=0    chnl=0
char id=184    x=98    y=147    width=7    height=28    xoffset=0    yoffset=0    xadvance=6     page=0    chnl=0
char id=185    x=105    y=147    width=7    height=28    xoffset=1    yoffset=0    xadvance=6     page=0    chnl=0
char id=186    x=112    y=147    width=6    height=28    xoffset=2    yoffset=0    xadvance=5     page=0    chnl=0
char id=187    x=118    y=147    width=9    height=28    xoffset=1    yoffset=0    xadvance=8     page=0    chnl=0
char id=188    x=127    y=147    width=14    height=28    xoffset=1    yoffset=0    xadvance=14     page=0    chnl=0
char id=189    x=141    y=147    width=15    height=28    xoffset=1    yoffset=0    xadvance=14     page=0    chnl=0
char id=190    x=156    y=147    width=15    height=28    xoffset=1    yoffset=0    xadvance=14     page=0    chnl=0
char id=191    x=171    y=147    width=9    height=28    xoffset=1    yoffset=0    xadvance=8     page=0    chnl=0
char id=192    x=180    y=147    width=16    height=28    xoffset=0    yoffset=0    xadvance=13     page=0    chnl=0
char id=193    x=196    y=147    width=16    height=28    xoffset=0    yoffset=0    xadvance=13     page=0    chnl=0
char id=194    x=212    y=147    width=16    height=28    xoffset=0    yoffset=0    xadvance=13     page=0    chnl=0
char id=195    x=228    y=147    width=17    height=28    xoffset=0    yoffset=0    xadvance=13     page=0    chnl=0
char id=196    x=0    y=175    width=16    height=28    xoffset=0    yoffset=0    xadvance=13     page=0    chnl=0
char id=197    x=16    y=175    width=16    height=28    xoffset=0    yoffset=0    xadvance=13     page=0    chnl=0
char id=198    x=32    y=175    width=18    height=28    xoffset=0    yoffset=0    xadvance=16     page=0    chnl=0
char id=199    x=50    y=175    width=13    height=28    xoffset=2    yoffset=0    xadvance=11     page=0    chnl=0
char id=200    x=63    y=175    width=15    height=28    xoffset=0    yoffset=0    xadvance=13     page=0    chnl=0
char id=201    x=78    y=175    width=15    height=28    xoffset=0    yoffset=0    xadvance=13     page=0    chnl=0
char id=202    x=93    y=175    width=15    height=28    xoffset=0    yoffset=0    xadvance=13     page=0    chnl=0
char id=203    x=108    y=175    width=15    height=28    xoffset=0    yoffset=0    xadvance=13     page=0    chnl=0
char id=204    x=123    y=175    width=12    height=28    xoffset=0    yoffset=0    xadvance=8     page=0    chnl=0
char id=205    x=135    y=175    width=12    height=28    xoffset=0    yoffset=0    xadvance=8     page=0    chnl=0
char id=206    x=147    y=175    width=12    height=28    xoffset=0    yoffset=0    xadvance=8     page=0    chnl=0
char id=207    x=159    y=175    width=12    height=28    xoffset=0    yoffset=0    xadvance=8     page=0    chnl=0
char id=208    x=171    y=175    width=16    height=28    xoffset=1    yoffset=0    xadvance=15     page=0    chnl=0
char id=209    x=187    y=175    width=21    height=28    xoffset=0    yoffset=0    xadvance=15     page=0    chnl=0
char id=210    x=208    y=175    width=13    height=28    xoffset=2    yoffset=0    xadvance=13     page=0    chnl=0
char id=211    x=221    y=175    width=13    height=28    xoffset=2    yoffset=0    xadvance=13     page=0    chnl=0
char id=212    x=234    y=175    width=13    height=28    xoffset=2    yoffset=0    xadvance=13     page=0    chnl=0
char id=213    x=0    y=203    width=14    height=28    xoffset=2    yoffset=0    xadvance=13     page=0    chnl=0
char id=214    x=14    y=203    width=13    height=28    xoffset=2    yoffset=0    xadvance=13     page=0    chnl=0
char id=215    x=27    y=203    width=11    height=28    xoffset=1    yoffset=0    xadvance=11     page=0    chnl=0
char id=216    x=38    y=203    width=14    height=28    xoffset=2    yoffset=0    xadvance=14     page=0    chnl=0
char id=217    x=52    y=203    width=16    height=28    xoffset=2    yoffset=0    xadvance=16     page=0    chnl=0
char id=218    x=68    y=203    width=16    height=28    xoffset=2    yoffset=0    xadvance=16     page=0    chnl=0
char id=219    x=84    y=203    width=15    height=28    xoffset=2    yoffset=0    xadvance=16     page=0    chnl=0
char id=220    x=99    y=203    width=16    height=28    xoffset=2    yoffset=0    xadvance=16     page=0    chnl=0
char id=221    x=115    y=203    width=18    height=28    xoffset=0    yoffset=0    xadvance=12     page=0    chnl=0
char id=222    x=133    y=203    width=14    height=28    xoffset=0    yoffset=0    xadvance=11     page=0    chnl=0
char id=223    x=147    y=203    width=15    height=28    xoffset=-3    yoffset=0    xadvance=9     page=0    chnl=0
char id=224    x=162    y=203    width=9    height=28    xoffset=2    yoffset=0    xadvance=9     page=0    chnl=0
char id=225    x=171    y=203    width=10    height=28    xoffset=2    yoffset=0    xadvance=9     page=0    chnl=0
char id=226    x=181    y=203    width=10    height=28    xoffset=2    yoffset=0    xadvance=9     page=0    chnl=0
char id=227    x=191    y=203    width=10    height=28    xoffset=2    yoffset=0    xadvance=9     page=0    chnl=0
char id=228    x=201    y=203    width=10    height=28    xoffset=2    yoffset=0    xadvance=9     page=0    chnl=0
char id=229    x=211    y=203    width=10    height=28    xoffset=2    yoffset=0    xadvance=9     page=0    chnl=0
char id=230    x=221    y=203    width=11    height=28    xoffset=2    yoffset=0    xadvance=11     page=0    chnl=0
char id=231    x=232    y=203    width=9    height=28    xoffset=1    yoffset=0    xadvance=7     page=0    chnl=0
char id=232    x=241    y=203    width=7    height=28    xoffset=2    yoffset=0    xadvance=7     page=0    chnl=0
char id=233    x=248    y=203    width=8    height=28    xoffset=2    yoffset=0    xadvance=7     page=0    chnl=0
char id=234    x=0    y=231    width=7    height=28    xoffset=2    yoffset=0    xadvance=7     page=0    chnl=0
char id=235    x=7    y=231    width=8    height=28    xoffset=2    yoffset=0    xadvance=7     page=0    chnl=0
char id=236    x=15    y=231    width=6    height=28    xoffset=2    yoffset=0    xadvance=5     page=0    chnl=0
char id=237    x=21    y=231    width=7    height=28    xoffset=2    yoffset=0    xadvance=5     page=0    chnl=0
char id=238    x=28    y=231    width=7    height=28    xoffset=2    yoffset=0    xadvance=5     page=0    chnl=0
char id=239    x=35    y=231    width=8    height=28    xoffset=1    yoffset=0    xadvance=5     page=0    chnl=0
char id=240    x=43    y=231    width=12    height=28    xoffset=2    yoffset=0    xadvance=8     page=0    chnl=0
char id=241    x=55    y=231    width=11    height=28    xoffset=1    yoffset=0    xadvance=10     page=0    chnl=0
char id=242    x=66    y=231    width=9    height=28    xoffset=2    yoffset=0    xadvance=8     page=0    chnl=0
char id=243    x=75    y=231    width=10    height=28    xoffset=2    yoffset=0    xadvance=8     page=0    chnl=0
char id=244    x=85    y=231    width=9    height=28    xoffset=2    yoffset=0    xadvance=8     page=0    chnl=0
char id=245    x=94    y=231    width=10    height=28    xoffset=2    yoffset=0    xadvance=8     page=0    chnl=0
char id=246    x=104    y=231    width=9    height=28    xoffset=2    yoffset=0    xadvance=8     page=0    chnl=0
char id=247    x=113    y=231    width=10    height=28    xoffset=2    yoffset=0    xadvance=11     page=0    chnl=0
char id=248    x=123    y=231    width=10    height=28    xoffset=1    yoffset=0    xadvance=9     page=0    chnl=0
char id=249    x=133    y=231    width=11    height=28    xoffset=1    yoffset=0    xadvance=10     page=0    chnl=0
char id=250    x=144    y=231    width=11    height=28    xoffset=1    yoffset=0    xadvance=10     page=0    chnl=0
char id=251    x=155    y=231    width=11    height=28    xoffset=1    yoffset=0    xadvance=10     page=0    chnl=0
char id=252    x=166    y=231    width=11    height=28    xoffset=1    yoffset=0    xadvance=10     page=0    chnl=0
char id=253    x=177    y=231    width=13    height=28    xoffset=-1    yoffset=0    xadvance=8     page=0    chnl=0
char id=254    x=190    y=231    width=14    height=28    xoffset=-2    yoffset=0    xadvance=9     page=0    chnl=0
char id=255    x=204    y=231    width=12    height=28    xoffset=-1    yoffset=0    xadvance=8     page=0    chnl=0
char id=256    x=216    y=231    width=18    height=28    xoffset=0    yoffset=0    xadvance=13     page=0    chnl=0
